{
    "ok": true,
    "version": "1.62.3",
    "platform": "linux",
    "quality": "stable",
    "downloadUrl": {
        "x86_64": "https://github.com/gitpod-io/openvscode-server/releases/download/openvscode-server-v1.61.0/openvscode-server-v1.62.3-linux-x64.tar.gz",
        "arm64": "https://github.com/gitpod-io/openvscode-server/releases/download/openvscode-server-v1.62.3/openvscode-server-v1.62.3-linux-arm64.tar.gz",
        "armhf": "https://github.com/gitpod-io/openvscode-server/releases/download/openvscode-server-v1.62.3/openvscode-server-v1.62.3-linux-armhf.tar.gz"
    }
}
